{
    "about_add_new_rule": {
        "message": "Th\u00eam quy \u0111\u1ecbnh m\u1edbi"
    },
    "about_ext_description": {
        "message": "M\u00e3 h\u00f3a Web! T\u1ef1 \u0111\u1ed9ng s\u1eed d\u1ee5ng b\u1ea3o m\u1eadt HTTPS \u1edf nhi\u1ec1u trang web."
    },
    "about_ext_name": {
        "message": "HTTPS Everywhere"
    },
    "about_rulesets_version": {
        "message": "Quy t\u1eafc \u0111\u00e1nh phi\u00ean b\u1ea3n cho"
    },
    "about_title": {
        "message": "V\u1ec1 HTTPS Everywhere"
    },
    "about_version": {
        "message": "Phi\u00ean b\u1ea3n"
    },
    "cancel_he_blocking_explainer": {
        "message": "HTTPS Everywhere noticed you were navigating to a non-HTTPS page, and tried to send you to the HTTPS version instead. The HTTPS version is unavailable. Most likely this site does not support HTTPS, but it is also possible that an attacker is blocking the HTTPS version. If you wish to view the unencrypted version of this page, you can still do so by disabling the 'Encrypt All Sites Eligible' (EASE) option in your HTTPS Everywhere extension. Be aware that disabling this option could make your browser vulnerable to network-based downgrade attacks on websites you visit."
    },
    "cancel_he_blocking_network": {
        "message": "network-based downgrade attacks"
    },
    "cancel_http_once": {
        "message": "Open insecure page for this session only"
    },
    "cancel_open_page": {
        "message": "Open insecure page"
    },
    "chrome_add_new_rule": {
        "message": "Th\u00eam m\u00f4\u0323t quy t\u0103\u0301c m\u01a1\u0301i cho trang na\u0300y"
    },
    "chrome_add_rule": {
        "message": "Th\u00eam m\u00f4\u0323t quy t\u0103\u0301c cho trang na\u0300y"
    },
    "chrome_always_https_for_host": {
        "message": "Lu\u00f4n s\u01b0\u0309 du\u0323ng https cho host na\u0300y"
    },
    "chrome_disable_on_this_site": {
        "message": "T\u1eaft tu\u1ef3 ch\u1ecdn HTTPS Everywhere tr\u00ean trang n\u00e0y."
    },
    "chrome_enable_on_this_site": {
        "message": "B\u1eadt tu\u1ef3 ch\u1ecdn HTTPS Everywhere tr\u00ean trang n\u00e0y."
    },
    "chrome_experimental_rules": {
        "message": "Ca\u0301c quy t\u0103\u0301c tra\u0309i nghi\u00ea\u0323m"
    },
    "chrome_experimental_rules_description": {
        "message": "Co\u0301 th\u00ea\u0309 g\u00e2y ra ca\u0301c ca\u0309nh ba\u0301o hay h\u01b0 ha\u0323i. M\u0103\u0323c \u0111i\u0323nh la\u0300 t\u0103\u0301t."
    },
    "chrome_hide_advanced": {
        "message": "\u00c2\u0309n chi ti\u00ea\u0301t"
    },
    "chrome_host": {
        "message": "Host:"
    },
    "chrome_redirect_to": {
        "message": "Chuy\u00ea\u0309n h\u01b0\u01a1\u0301ng \u0111\u00ea\u0301n"
    },
    "chrome_regex": {
        "message": "Regex phu\u0300 h\u01a1\u0323p"
    },
    "chrome_rule_name": {
        "message": "T\u00ean quy t\u0103\u0301c"
    },
    "chrome_settings_for_this_site_explained": {
        "message": "As you browse different websites, you can change your preferences for each website"
    },
    "chrome_settings_for_this_site_header": {
        "message": "Settings for this site"
    },
    "chrome_settings_for_this_site_subheader": {
        "message": "Change your preferences for encrypted connections"
    },
    "chrome_show_advanced": {
        "message": "Hi\u00ea\u0309n thi\u0323 chi ti\u00ea\u0301t"
    },
    "chrome_stable_rules": {
        "message": "Ca\u0301c quy t\u0103\u0301c \u00f4\u0309n \u0111i\u0323nh"
    },
    "chrome_stable_rules_description": {
        "message": "E\u0301p bu\u00f4\u0323c ma\u0303 ho\u0301a ca\u0301c k\u00ea\u0301t n\u00f4\u0301i \u0111\u00ea\u0301n ca\u0301c trang web na\u0300y:"
    },
    "chrome_status_cancel_button": {
        "message": "H\u1ee7y b\u1ecf"
    },
    "menu_donate_eff_imperative": {
        "message": "\u0110\u00f3ng g\u00f3p cho EFF"
    },
    "menu_encryptAllSitesEligibleOff": {
        "message": "Encrypt All Sites Eligible is OFF"
    },
    "menu_encryptAllSitesEligibleOn": {
        "message": "m\u00e3 ho\u00e1 t\u1ea5t c\u1ea3 c\u00e1c website \u0111\u1ee7 di\u1ec1u ki\u1ec7n \u0111ang b\u1eadt"
    },
    "menu_globalDisable": {
        "message": "HTTPS M\u1ecdi N\u01a1i \u0111ang T\u1eaeT"
    },
    "menu_globalEnable": {
        "message": "HTTPS M\u1ecdi N\u01a1i \u0111ang B\u1eacT"
    },
    "menu_httpNoWhereExplainedAllowed": {
        "message": "Unencrypted requests are currently allowed"
    },
    "menu_httpNoWhereExplainedBlocked": {
        "message": "Unencrypted requests are currently blocked"
    },
    "menu_httpNoWhereMore": {
        "message": "This mode blocks unencrypted content and requests"
    },
    "menu_observatory": {
        "message": "Ca\u0301c Tu\u0300y Cho\u0323n \u01afu Ti\u00ean cho SSL Observatory"
    },
    "menu_seeLess": {
        "message": "See less"
    },
    "menu_seeMore": {
        "message": "See more"
    },
    "menu_showCounter": {
        "message": "Hi\u00ea\u0309n Thi\u0323 B\u00f4\u0323 \u0110\u00ea\u0301m"
    },
    "menu_viewAllRules": {
        "message": "Xem T\u00e2\u0301t Ca\u0309 Quy T\u0103\u0301c"
    },
    "options_addUpdateChannel": {
        "message": "Th\u00eam k\u00eanh c\u1eadp nh\u1eadt"
    },
    "options_advancedSettings": {
        "message": "Thi\u1ebft l\u1eadp n\u00e2ng cao"
    },
    "options_autoUpdateRulesets": {
        "message": "T\u1eadp lu\u1eadt \u00e1p d\u1ee5ng cho t\u1ef1 \u0111\u1ed9ng c\u1eadp nh\u1eadt"
    },
    "options_debuggingRulesets": {
        "message": "Debugging Rulesets (advanced)"
    },
    "options_delete": {
        "message": "X\u00f3a"
    },
    "options_disabledUrlsListed": {
        "message": "HTTPS Everywhere Sites Disabled"
    },
    "options_enableMixedRulesets": {
        "message": "\u00c1p d\u1ee5ng t\u1eadp lu\u1eadt cho n\u1ed9i dung h\u1ed7n h\u1ee3p"
    },
    "options_enterUpdateChannelName": {
        "message": "Nh\u1eadp n\u1ed9i dung k\u00eanh c\u1eadp nh\u1eadt"
    },
    "options_generalSettings": {
        "message": "Nh\u1eefng c\u00e0i \u0111\u1eb7t chung"
    },
    "options_settings": {
        "message": "Thi\u1ebft \u0111\u1eb7t"
    },
    "options_showDevtoolsTab": {
        "message": "Hi\u1ec7n tab devtools"
    },
    "options_storedRulesetsVersion": {
        "message": "C\u00e1c lu\u1eadt \u0111\u00e1nh phi\u00ean b\u1ea3n \u0111\u00e3 \u0111\u01b0\u1ee3c l\u01b0u tr\u1eef"
    },
    "options_update": {
        "message": "C\u1eadp nh\u1eadt"
    },
    "options_updateChannels": {
        "message": "K\u00eanh c\u1eadp nh\u1eadt"
    },
    "options_updateChannelsWarning": {
        "message": "C\u1ea3nh b\u1ea3o: Th\u00eam k\u00eanh c\u1eadp nh\u1eadt ph\u1ea7n m\u1ec1m c\u00f3 th\u1ec3 cho c\u00e1c k\u1ebb t\u1ea5n c\u00f4ng l\u1ee3i d\u1ee5ng chi\u1ebfm \u0111o\u1ea1t quy\u1ec1n c\u1ee7a tr\u00ecnh duy\u1ec7t. Ch\u1ec9 khi n\u00e0o b\u1ea1n bi\u1ebft r\u00f5 m\u00ecnh \u0111ang l\u00e0m g\u00ec th\u00ec m\u1edbi ch\u1ec9nh s\u1eeda n\u1ed9i dung n\u00e0y."
    },
    "options_updatesLastChecked": {
        "message": "C\u1eadp nh\u1eadt \u0111\u01b0\u1ee3c ki\u1ec3m tra l\u1ea7n cu\u1ed1i"
    },
    "options_updatesLastCheckedNever": {
        "message": "ch\u01b0a bao gi\u1edd"
    },
    "options_userRulesListed": {
        "message": "HTTPS Everywhere User Rules"
    },
    "prefs_export_settings": {
        "message": "Xu\u1ea5t c\u00e1c c\u00e0i \u0111\u1eb7t"
    },
    "prefs_reset_defaults": {
        "message": "Kh\u00f4i ph\u1ee5c v\u00ea\u0300 M\u1eb7c \u0111\u1ecbnh"
    },
    "prefs_reset_defaults_message": {
        "message": "Vi\u1ec7c n\u00e0y s\u1ebd \u0111\u1eb7t l\u1ea1i to\u00e0n b\u1ed9 t\u1eadp lu\u1eadt v\u1ec1 tr\u1ea1ng th\u00e1i m\u1eb7c \u0111\u1ecbnh. Ti\u1ebfp t\u1ee5c ch\u1ee9?"
    }
}